{
  "rules": {
    "users": {
      "$uid": {
        ".write": "$uid === auth.uid",
        ".read": "$uid === auth.uid",
        "profileimage": {
          ".write": "$uid === auth.uid",
          ".read": true
        },
        "hackvent": {
          ".write": "$uid === auth.uid",
          ".read": "auth != null"
        },
        "pushkey": {
          ".write": "$uid === auth.uid",
          ".read": "$uid === auth.uid"
        },
        "privacy": {
          ".write": "$uid === auth.uid",
          ".read": true
        },
        "newinbox": {
          ".write": "auth != null",
          ".read": "auth != null",
          ".indexOn": "timestamp"
        },
        "agentname": {
          ".write": "$uid === auth.uid",
          ".read": "auth != null"
        },
        "fcm": {
          ".write": "$uid === auth.uid",
          ".read": "auth != null"
        },
        "badges": {
          ".write": "$uid === auth.uid",
          ".read": true
        },
        "faction": {
          ".write": "$uid === auth.uid",
          ".read": true
        },
        "pvp": {
          ".write": "$uid === auth.uid",
          ".read": "auth != null"
        },
        "appversion": {
          ".write": "$uid === auth.uid",
          ".read": "auth != null"
        },
        "missions": {
          ".indexOn": "timestamp"
        },
        "friends": {
          ".write": "auth != null",
          ".read": "auth != null",
          ".indexOn": "timestamp",
          "status": {
            ".write": "auth != null",
            ".read": "auth != null"
          }
        }
      }
    },
    "missions": {
      ".read": "auth != null",
      ".write": "auth != null"
    },
    "pvp": {
      ".read": true,
      ".write": "auth != null"
    },
    "agentcodes": {
      ".read": "auth != null",
      ".write": "auth != null"
    },
    "aod": {
      ".read": "auth != null",
      ".write": "auth != null"
    },
    "friendrequests": {
      ".read": "auth != null",
      ".write": "auth != null",
      ".indexOn": "timestamp"
    },
    "token": {
      ".read": false,
      ".write": false
    },
    "running": {
      ".read": "auth != null",
      ".write": "auth != null",
      ".indexOn": "currentvalue",
      "$theyear": {
        "$month": {
          "$theid": {
            ".indexOn": "currentvalue",
            "$uid": {
              ".indexOn": "currentvalue"
            }
          }
        }
      }
    }
  }
}