{
  "aod": {
    "aodbadges": {
      "SPECIAL1909": {
        "cat": "000",
        "drawable": "https://aod.prxenon.rocks/img/logo.png",
        "drawablegold": "https://aod.prxenon.rocks/img/logo.png",
        "drawableplatin": "https://aod.prxenon.rocks/img/logo.png",
        "drawablesilver": "https://aod.prxenon.rocks/img/logo.png",
        "field": "Earth AP run",
        "id": "SPECIAL1909",
        "pvp": false,
        "short1": "AP",
        "short2": "AP gained",
        "title": "Earth AP run Badge",
        "titlegold": "AP run PROFI",
        "titleonyx": "AP run ELITE",
        "titleplatin": "AP run MASTER",
        "titlesilver": "AP run AGENT",
        "valgold": 800000,
        "valonyx": 9000000,
        "valplatin": 3000000,
        "valsilver": 350000
      }
    },
    "badge": {
      "210": {
        "cat": 200,
        "drawable": "badge_trekker_black",
        "drawablegold": "badge_trekker_gold",
        "drawableplatin": "badge_trekker_platinum",
        "field": "Distance Walked",
        "id": 210,
        "pvp": true,
        "short1": "km",
        "short2": "Distance Walked",
        "title": "Trekker"
      },
      "310": {
        "cat": 300,
        "drawable": "badge_builder_black",
        "drawablegold": "badge_builder_gold",
        "drawableplatin": "badge_builder_platinum",
        "field": "Resonators Deployed",
        "id": 310,
        "pvp": true,
        "short1": "Resonators",
        "short2": "Resonators Deployed",
        "title": "Builder"
      },
      "320": {
        "cat": 300,
        "drawable": "badge_bconnector_black",
        "drawablegold": "badge_connector_gold",
        "drawableplatin": "badge_connector_platinum",
        "field": "Links Created",
        "id": 320,
        "pvp": true,
        "short1": "Links",
        "short2": "Links Created",
        "title": "Connector"
      },
      "330": {
        "cat": 300,
        "drawable": "badge_mindcontroller_black",
        "drawablegold": "badge_mindcontroller_gold",
        "drawableplatin": "badge_mindcontroller_platinum",
        "field": "Control Fields Created",
        "id": 330,
        "pvp": true,
        "short1": "Control Fields",
        "short2": "Fields Created",
        "title": "Mind Controller"
      },
      "340": {
        "cat": 300,
        "drawable": "badge_illuminator_black",
        "drawablegold": "badge_illuminator_gold",
        "drawableplatin": "badge_illuminator_platinum",
        "field": "Mind Units Captured",
        "id": 340,
        "pvp": true,
        "short1": "Mind Units",
        "short2": "Mind Units Captured",
        "title": "Illuminator"
      },
      "370": {
        "cat": 300,
        "drawable": "badge_recharger_black",
        "drawablegold": "badge_recharger_gold",
        "drawableplatin": "badge_recharger_platinum",
        "field": "XM Recharged",
        "id": 370,
        "pvp": true,
        "short1": "XM",
        "short2": "XM Recharged",
        "title": "Recharger"
      },
      "380": {
        "cat": 300,
        "drawable": "badge_liberator_black",
        "drawablegold": "badge_liberator_gold",
        "drawableplatin": "badge_liberator_platinum",
        "field": "Portals Captured",
        "id": 380,
        "pvp": true,
        "short1": "Portals",
        "short2": "Portals Captured",
        "title": "Liberator"
      },
      "390": {
        "cat": 300,
        "drawable": "badge_engineer_black",
        "drawablegold": "badge_engineer_gold",
        "drawableplatin": "badge_engineer_platinum",
        "field": "Mods Deployed",
        "id": 390,
        "pvp": true,
        "short1": "Mods",
        "short2": "Mods Deployed",
        "title": "Engineer"
      },
      "410": {
        "cat": 400,
        "drawable": "badge_purifier_black",
        "drawablegold": "badge_purifier_gold",
        "drawableplatin": "badge_purifier_platinum",
        "field": "Resonators Destroyed",
        "id": 410,
        "pvp": true,
        "short1": "Resonators",
        "short2": "Resonators Destroyed",
        "title": "Purifier"
      },
      "710": {
        "cat": 700,
        "drawable": "badge_hacker_black",
        "drawablegold": "badge_hacker_gold",
        "drawableplatin": "badge_hacker_platinum",
        "field": "Hacks",
        "id": 710,
        "pvp": true,
        "short1": "Portals",
        "short2": "Portals hacked",
        "title": "Hacker"
      },
      "720": {
        "cat": 700,
        "drawable": "badge_translator_black",
        "drawablegold": "badge_translator_gold",
        "drawableplatin": "badge_translator_platinum",
        "field": "Glyph Hack Points",
        "id": 720,
        "pvp": true,
        "short1": "Glyph Points",
        "short2": "Glyph hacking",
        "title": "Translator"
      },
      "810": {
        "cat": 800,
        "drawable": "badge_ap_black",
        "drawablegold": "badge_ap_gold",
        "drawableplatin": "badge_ap_platinum",
        "field": "AP",
        "id": 810,
        "pvp": true,
        "short1": "AP",
        "short2": "AP (lifetime)",
        "title": "AP"
      },
      "820": {
        "cat": 800,
        "drawable": "full_logo",
        "drawablegold": "full_logo",
        "drawableplatin": "full_logo",
        "field": "Resonator",
        "id": 999,
        "pvp": false,
        "short1": "L1",
        "short2": "L1 Resonators",
        "title": "L1 Resonators in Inventory"
      },
      "850": {
        "cat": 300,
        "descr": {
          "de": "Wie viele aktive Links kannst du erzielen?",
          "en": "How many active links can you get?"
        },
        "drawable": "badge_now_white",
        "drawablegold": "badge_now_white",
        "drawableplatin": "badge_now_white",
        "field": "Links Active",
        "id": 850,
        "pvp": false,
        "short1": "avtive Links",
        "short2": "Links active",
        "title": "Links active NOW"
      },
      "998": {
        "cat": 900,
        "drawable": "full_logo",
        "drawablegold": "full_logo",
        "drawableplatin": "full_logo",
        "field": "Current",
        "id": 998,
        "pvp": false,
        "short1": "Current",
        "short2": "Current",
        "title": "Current Years"
      },
      "999": {
        "cat": 900,
        "drawable": "full_logo",
        "drawablegold": "full_logo",
        "drawableplatin": "full_logo",
        "field": "History",
        "id": 999,
        "pvp": false,
        "short1": "History",
        "short2": "History",
        "title": "History (Years)"
      }
    },
    "cat": {
      "000": {
        "active": true,
        "id": "000",
        "title": "Special"
      },
      "100": {
        "active": true,
        "id": 100,
        "title": "Discovery"
      },
      "200": {
        "active": true,
        "id": 200,
        "title": "Health"
      },
      "300": {
        "active": true,
        "id": 300,
        "title": "Building"
      },
      "400": {
        "active": true,
        "id": 400,
        "title": "Combat"
      },
      "500": {
        "active": true,
        "id": 500,
        "title": "Defense"
      },
      "600": {
        "active": true,
        "id": 600,
        "title": "Missions"
      },
      "700": {
        "active": true,
        "id": 700,
        "title": "Resource"
      },
      "800": {
        "active": true,
        "id": 800,
        "title": "Activity"
      },
      "900": {
        "active": true,
        "id": 900,
        "title": "History"
      }
    },
    "runtimes": {
      "10": {
        "active": true,
        "seconds": 600,
        "unite": "minutes",
        "value": 10
      },
      "30": {
        "active": true,
        "seconds": 1800,
        "unite": "minutes",
        "value": 30
      },
      "60": {
        "active": true,
        "seconds": 3600,
        "unite": "minutes",
        "value": 60
      },
      "180": {
        "active": true,
        "seconds": 10800,
        "unite": "hours",
        "value": 3
      },
      "480": {
        "active": true,
        "seconds": 28800,
        "unite": "hours",
        "value": 8
      },
      "960": {
        "active": true,
        "seconds": 57600,
        "unite": "hours",
        "value": 16
      },
      "1440": {
        "active": true,
        "seconds": 86400,
        "unite": "hours",
        "value": 24
      },
      "4320": {
        "active": true,
        "seconds": 259200,
        "unite": "days",
        "value": 3
      },
      "10080": {
        "active": true,
        "seconds": 604800,
        "unite": "days",
        "value": 7
      }
    }
  },
  "missions": {
    "earth": {
      "2020": {
        "AOD200214DIDACT": {
          "agents": 231,
          "badge": 330,
          "badgenia": "badge_didact",
          "cat": 300,
          "community": {
            "current": 91341,
            "enl": 68387,
            "finished": false,
            "goal": 10000,
            "goalblack": 150000,
            "goalnia": 5500000,
            "goalplatin": 80000,
            "res": 22072
          },
          "descr": "DIDACT field challenge",
          "duell": false,
          "goal": 100,
          "goalblack": 800,
          "goalplatin": 300,
          "id": "AOD200214DIDACT",
          "link": "https://community.ingress.com/en/discussion/9174/didact-field-challenge-feb-14-24-2020",
          "price": false,
          "prime": true,
          "ranking": true,
          "runtime": "24.02.2020 19:00 UTC",
          "team": false,
          "title": "DIDACT FIELD",
          "xf": false
        }
      }
    },
    "mini": {
      "1583704800000": {
        "agents": 25,
        "art": "stats",
        "badge": 850,
        "cat": 800,
        "descr": {
          "de": "Wer hat die meisten aktiven Links. Schaffe es in die finale Rangliste. ",
          "en": "Who has the most active links. Make it into the final leaderboard."
        },
        "duell": false,
        "id": "1583704800000",
        "max": 4,
        "price": false,
        "ranking": true,
        "stats": "now",
        "team": false,
        "xf": false
      }
    },
    "month": {
      "2020": {
        "01": {
          "agents": 264,
          "badge": 710,
          "cat": 700,
          "community": {
            "current": 363935,
            "enl": 260208,
            "finished": false,
            "goal": 13500,
            "goalblack": 264977,
            "goalplatin": 124333,
            "res": 99948
          },
          "duell": false,
          "goal": 150,
          "goalblack": 2500,
          "goalplatin": 1200,
          "id": "M2001700710",
          "price": false,
          "ranking": true,
          "team": true,
          "xf": false
        },
        "02": {
          "agents": 260,
          "badge": 810,
          "cat": 800,
          "community": {
            "current": 806192277,
            "enl": 578616288,
            "finished": false,
            "goal": 100000000,
            "goalblack": 350000000,
            "goalplatin": 200000000,
            "res": 220496053
          },
          "duell": false,
          "goal": 500000,
          "goalblack": 5100000,
          "goalplatin": 2500000,
          "id": "M2002800810",
          "price": false,
          "ranking": true,
          "team": true,
          "xf": false
        },
        "03": {
          "agents": 212,
          "badge": 410,
          "cat": 400,
          "community": {
            "current": 61103,
            "enl": 47461,
            "finished": false,
            "goal": 75000,
            "goalblack": 400000,
            "goalplatin": 200000,
            "res": 12942
          },
          "duell": false,
          "goal": 80,
          "goalblack": 2500,
          "goalplatin": 700,
          "id": "M2003400410",
          "price": false,
          "ranking": true,
          "team": true,
          "xf": false
        }
      }
    },
    "week": {
      "2020": {
        "0206": {
          "agents": 191,
          "badge": 810,
          "cat": 800,
          "community": {
            "current": 91918338,
            "enl": 64342484,
            "finished": false,
            "goal": 8000000,
            "goalblack": 80000000,
            "goalplatin": 30000000,
            "res": 26204804
          },
          "duell": false,
          "goal": 175000,
          "goalblack": 1900000,
          "goalplatin": 1000001,
          "id": "W200206800810",
          "price": false,
          "ranking": true,
          "team": false,
          "xf": false
        }
      }
    }
  },
  "niaevents": {
    "events": {
      "002aa307e8a1b2593fe1bbfe99a51263": {
        "active": false,
        "city": "Tarapoto",
        "country": "Peru",
        "date": "2020-02-01",
        "eventid": "002aa307e8a1b2593fe1bbfe99a51263",
        "img": "https://ingress.com/assets/img/events/first-saturday.png",
        "lastupdate": 1580601606,
        "latlon": "-6.482478,-76.372689",
        "location": "Tarapoto, Peru",
        "regio": "AMER",
        "stringtime": 1580515200,
        "type": "First Saturday",
        "url": "https://fevgames.net/ifs/event/?e=15937"
      }
    }
  }
}
